%YAML 1.1
%TAG !u! tag:unity3d.com,2011:
--- !u!1001 &100100000
Prefab:
  m_ObjectHideFlags: 1
  serializedVersion: 2
  m_Modification:
    m_TransformParent: {fileID: 0}
    m_Modifications: []
    m_RemovedComponents: []
  m_ParentPrefab: {fileID: 0}
  m_RootGameObject: {fileID: 1000011967522198}
  m_IsPrefabParent: 1
--- !u!1 &1000011967522198
GameObject:
  m_ObjectHideFlags: 0
  m_PrefabParentObject: {fileID: 0}
  m_PrefabInternal: {fileID: 100100000}
  serializedVersion: 4
  m_Component:
  - 4: {fileID: 4000010711360984}
  - 114: {fileID: 114000012001249318}
  m_Layer: 0
  m_Name: TownZone
  m_TagString: Untagged
  m_Icon: {fileID: 0}
  m_NavMeshLayer: 0
  m_StaticEditorFlags: 0
  m_IsActive: 1
--- !u!4 &4000010711360984
Transform:
  m_ObjectHideFlags: 1
  m_PrefabParentObject: {fileID: 0}
  m_PrefabInternal: {fileID: 100100000}
  m_GameObject: {fileID: 1000011967522198}
  m_LocalRotation: {x: 0, y: 0, z: 0, w: 1}
  m_LocalPosition: {x: 0, y: 0, z: 0}
  m_LocalScale: {x: 1, y: 1, z: 1}
  m_LocalEulerAnglesHint: {x: 0, y: 0, z: 0}
  m_Children: []
  m_Father: {fileID: 0}
  m_RootOrder: 0
--- !u!114 &114000012001249318
MonoBehaviour:
  m_ObjectHideFlags: 1
  m_PrefabParentObject: {fileID: 0}
  m_PrefabInternal: {fileID: 100100000}
  m_GameObject: {fileID: 1000011967522198}
  m_Enabled: 1
  m_EditorHideFlags: 0
  m_Script: {fileID: 11500000, guid: e563452e38370cf449908fd3a2cf3524, type: 3}
  m_Name: 
  m_EditorClassIdentifier: 
  ZoneName: Town
  ZoneLengthRange:
    min: 10
    max: 20
  ZoneLength: 0
  TransitionLength:
    min: 5
    max: 5
  TransitionInMultiplier: 1.5
  TransitionOutMultiplier: 1.5
  groundPlaneMaterial: {fileID: 2100000, guid: 7b0b7ececa429674ca4009d2228f6bdd, type: 2}
  Spawners:
  - position: {x: -220, y: 0, z: 42.4}
    Spawner: {fileID: 114000012685974102, guid: cb07e395c575fa64b8e8fad8c2fa02c8,
      type: 2}
    timeBetweenSpawns:
      min: 0.5
      max: 1
    scale:
      min: 0.9
      max: 1.1
    currentSpeed: 1
    TransitionInCurve:
      serializedVersion: 2
      m_Curve:
      - time: 0
        value: 0
        inSlope: 2
        outSlope: 2
        tangentMode: 0
      - time: 1
        value: 1
        inSlope: 0
        outSlope: 0
        tangentMode: 0
      m_PreInfinity: 2
      m_PostInfinity: 2
      m_RotationOrder: 0
    TransitionOutCurve:
      serializedVersion: 2
      m_Curve:
      - time: 0
        value: 0
        inSlope: 2
        outSlope: 2
        tangentMode: 0
      - time: 1
        value: 1
        inSlope: 0
        outSlope: 0
        tangentMode: 0
      m_PreInfinity: 2
      m_PostInfinity: 2
      m_RotationOrder: 0
  - position: {x: -220, y: 0, z: 94.5}
    Spawner: {fileID: 114000012685974102, guid: cb07e395c575fa64b8e8fad8c2fa02c8,
      type: 2}
    timeBetweenSpawns:
      min: 0.5
      max: 2
    scale:
      min: 0.9
      max: 1.1
    currentSpeed: 1
    TransitionInCurve:
      serializedVersion: 2
      m_Curve:
      - time: 0
        value: 0
        inSlope: 2
        outSlope: 2
        tangentMode: 0
      - time: 1
        value: 1
        inSlope: 0
        outSlope: 0
        tangentMode: 0
      m_PreInfinity: 2
      m_PostInfinity: 2
      m_RotationOrder: 0
    TransitionOutCurve:
      serializedVersion: 2
      m_Curve:
      - time: 0
        value: 0
        inSlope: 2
        outSlope: 2
        tangentMode: 0
      - time: 1
        value: 1
        inSlope: 0
        outSlope: 0
        tangentMode: 0
      m_PreInfinity: 2
      m_PostInfinity: 2
      m_RotationOrder: 0
  - position: {x: -270, y: 0, z: 166.7}
    Spawner: {fileID: 114000012685974102, guid: cb07e395c575fa64b8e8fad8c2fa02c8,
      type: 2}
    timeBetweenSpawns:
      min: 0.5
      max: 2
    scale:
      min: 0.9
      max: 1.1
    currentSpeed: 1
    TransitionInCurve:
      serializedVersion: 2
      m_Curve:
      - time: 0
        value: 0
        inSlope: 0
        outSlope: 0
        tangentMode: 0
      - time: 1
        value: 1
        inSlope: 2
        outSlope: 2
        tangentMode: 0
      m_PreInfinity: 2
      m_PostInfinity: 2
      m_RotationOrder: 0
    TransitionOutCurve:
      serializedVersion: 2
      m_Curve:
      - time: 0
        value: 0
        inSlope: 0
        outSlope: 0
        tangentMode: 0
      - time: 1
        value: 1
        inSlope: 2
        outSlope: 2
        tangentMode: 0
      m_PreInfinity: 2
      m_PostInfinity: 2
      m_RotationOrder: 0
  - position: {x: -375, y: 0, z: 261}
    Spawner: {fileID: 114000012685974102, guid: cb07e395c575fa64b8e8fad8c2fa02c8,
      type: 2}
    timeBetweenSpawns:
      min: 0.5
      max: 2
    scale:
      min: 0.9
      max: 1.1
    currentSpeed: 1
    TransitionInCurve:
      serializedVersion: 2
      m_Curve:
      - time: 0
        value: 0
        inSlope: 0
        outSlope: 0
        tangentMode: 0
      - time: 1
        value: 1
        inSlope: 2
        outSlope: 2
        tangentMode: 0
      m_PreInfinity: 2
      m_PostInfinity: 2
      m_RotationOrder: 0
    TransitionOutCurve:
      serializedVersion: 2
      m_Curve:
      - time: 0
        value: 0
        inSlope: 0
        outSlope: 0
        tangentMode: 0
      - time: 1
        value: 1
        inSlope: 2
        outSlope: 2
        tangentMode: 0
      m_PreInfinity: 2
      m_PostInfinity: 2
      m_RotationOrder: 0
  TransitionIn: 0
  TransitionOut: 0
  TransitionInTime: 0
  TransitionOutTime: 0
  TimeSinceTransitionInStart: 0
  TimeSinceTransitionOutStart: 0
  currentSpawners: []
