%YAML 1.1
%TAG !u! tag:unity3d.com,2011:
--- !u!1001 &100100000
Prefab:
  m_ObjectHideFlags: 1
  serializedVersion: 2
  m_Modification:
    m_TransformParent: {fileID: 0}
    m_Modifications: []
    m_RemovedComponents: []
  m_ParentPrefab: {fileID: 0}
  m_RootGameObject: {fileID: 1000014282201232}
  m_IsPrefabParent: 1
--- !u!1 &1000014282201232
GameObject:
  m_ObjectHideFlags: 0
  m_PrefabParentObject: {fileID: 0}
  m_PrefabInternal: {fileID: 100100000}
  serializedVersion: 4
  m_Component:
  - 4: {fileID: 4000012192150274}
  - 114: {fileID: 114000011441961698}
  m_Layer: 0
  m_Name: American_Indian
  m_TagString: Untagged
  m_Icon: {fileID: 0}
  m_NavMeshLayer: 0
  m_StaticEditorFlags: 0
  m_IsActive: 1
--- !u!4 &4000012192150274
Transform:
  m_ObjectHideFlags: 1
  m_PrefabParentObject: {fileID: 0}
  m_PrefabInternal: {fileID: 100100000}
  m_GameObject: {fileID: 1000014282201232}
  m_LocalRotation: {x: 0, y: 0, z: 0, w: 1}
  m_LocalPosition: {x: 0, y: 0, z: 0}
  m_LocalScale: {x: 1, y: 1, z: 1}
  m_LocalEulerAnglesHint: {x: 0, y: 0, z: 0}
  m_Children: []
  m_Father: {fileID: 0}
  m_RootOrder: 0
--- !u!114 &114000011441961698
MonoBehaviour:
  m_ObjectHideFlags: 1
  m_PrefabParentObject: {fileID: 0}
  m_PrefabInternal: {fileID: 100100000}
  m_GameObject: {fileID: 1000014282201232}
  m_Enabled: 1
  m_EditorHideFlags: 0
  m_Script: {fileID: 11500000, guid: 676fc1c807f96ab43a647ac62cc7e65f, type: 3}
  m_Name: 
  m_EditorClassIdentifier: 
  HeadImage: {fileID: 2100000, guid: 9f775d53adef2b1448823fd13a5dbcd2, type: 2}
  HeadImageOutline: {fileID: 2100000, guid: 455496e4abd6e3b4585b8b3c07324d15, type: 2}
  OutlinePosition: {fileID: 4000010452361904, guid: 970cad0670a4d2b4bbbdb74f428155b9,
    type: 2}
  HeadPositions:
  - {fileID: 4000011083968412, guid: ade4bcb55c1c5d8439147d79fac68ed4, type: 2}
  - {fileID: 4000010175037526, guid: aefa9c23aee91f741b88b09e802c91f0, type: 2}
  - {fileID: 4000013387783098, guid: 20b36c0b80e8fc744b2ef38e4c921f74, type: 2}
  - {fileID: 4000010089625796, guid: 740d845bfa26f3a44833abe492cccbfa, type: 2}
  Human: 1
