%YAML 1.1
%TAG !u! tag:unity3d.com,2011:
--- !u!1001 &100100000
Prefab:
  m_ObjectHideFlags: 1
  serializedVersion: 2
  m_Modification:
    m_TransformParent: {fileID: 0}
    m_Modifications: []
    m_RemovedComponents: []
  m_ParentPrefab: {fileID: 0}
  m_RootGameObject: {fileID: 1000013588367274}
  m_IsPrefabParent: 1
--- !u!1 &1000013588367274
GameObject:
  m_ObjectHideFlags: 0
  m_PrefabParentObject: {fileID: 0}
  m_PrefabInternal: {fileID: 100100000}
  serializedVersion: 4
  m_Component:
  - 4: {fileID: 4000012116706040}
  - 114: {fileID: 114000011055787384}
  m_Layer: 0
  m_Name: Black Woman 1
  m_TagString: Untagged
  m_Icon: {fileID: 0}
  m_NavMeshLayer: 0
  m_StaticEditorFlags: 0
  m_IsActive: 1
--- !u!4 &4000012116706040
Transform:
  m_ObjectHideFlags: 1
  m_PrefabParentObject: {fileID: 0}
  m_PrefabInternal: {fileID: 100100000}
  m_GameObject: {fileID: 1000013588367274}
  m_LocalRotation: {x: 0, y: 0, z: 0, w: 1}
  m_LocalPosition: {x: 0, y: 0, z: 0}
  m_LocalScale: {x: 1, y: 1, z: 1}
  m_LocalEulerAnglesHint: {x: 0, y: 0, z: 0}
  m_Children: []
  m_Father: {fileID: 0}
  m_RootOrder: 0
--- !u!114 &114000011055787384
MonoBehaviour:
  m_ObjectHideFlags: 1
  m_PrefabParentObject: {fileID: 0}
  m_PrefabInternal: {fileID: 100100000}
  m_GameObject: {fileID: 1000013588367274}
  m_Enabled: 1
  m_EditorHideFlags: 0
  m_Script: {fileID: 11500000, guid: 676fc1c807f96ab43a647ac62cc7e65f, type: 3}
  m_Name: 
  m_EditorClassIdentifier: 
  HeadImage: {fileID: 2100000, guid: 873d34522101d8d42bb9b676df93854d, type: 2}
  HeadImageOutline: {fileID: 2100000, guid: 7d893f5c2560af4498ac75d5f90b6240, type: 2}
  OutlinePosition: {fileID: 4000010141346656, guid: 234e2aa741d19804284fa0e7f7191fb4,
    type: 2}
  HeadPositions:
  - {fileID: 4000013347156514, guid: 13ec9e13cecbb8b48831b1e13000b066, type: 2}
  - {fileID: 4000011405147938, guid: 3ac29f764d243b04eaa310c4d5160264, type: 2}
  - {fileID: 4000010731834140, guid: 7a9d889234f2c1e4387cb632e32715de, type: 2}
  - {fileID: 4000010542840638, guid: 072a579b9c485114fbb37bc35d0bc083, type: 2}
  Human: 1
